[
  {
    "Apr": 18.9,
    "BalanceTransferOfferDuration": 0,
    "PurchaseOfferDuration": 0,
    "CreditAvailable": 1200,
    "CardType": 2
  },
  {
    "Apr": 33.9,
    "BalanceTransferOfferDuration": 12,
    "PurchaseOfferDuration": 6,
    "CreditAvailable": 3000,
    "CardType": 1
  },
  {
    "Apr": 33.9,
    "BalanceTransferOfferDuration": 0,
    "PurchaseOfferDuration": 0,
    "CreditAvailable": 300,
    "CardType": 0
  }
]